/* XPM */
static char * bottomframe_xpm[] = {
"633 33 66 1",
" 	c None",
".	c #FFFFFF",
"+	c #FFFAF6",
"@	c #FFFAFF",
"#	c #181410",
"$	c #FFF6FF",
"%	c #F6F2F6",
"&	c #000000",
"*	c #FFF6F6",
"=	c #F6F6F6",
"-	c #F6EEF6",
";	c #080808",
">	c #000400",
",	c #F6F2EE",
"'	c #EEEEEE",
")	c #181818",
"!	c #CDCAC5",
"~	c #D5CECD",
"{	c #F6FAF6",
"]	c #101008",
"^	c #C5CAC5",
"/	c #BDBEBD",
"(	c #D5D2CD",
"_	c #080C00",
":	c #DEDAD5",
"<	c #CDCECD",
"[	c #D5D6D5",
"}	c #100C08",
"|	c #BDBAB4",
"1	c #080800",
"2	c #E6E6E6",
"3	c #BDBABD",
"4	c #101410",
"5	c #181810",
"6	c #080C08",
"7	c #DED6D5",
"8	c #BDB6B4",
"9	c #B4B6AC",
"0	c #F6EEEE",
"a	c #DEDEDE",
"b	c #B4B2B4",
"c	c #C5C6C5",
"d	c #C5C6BD",
"e	c #CDCACD",
"f	c #B4B2AC",
"g	c #101010",
"h	c #B4B6B4",
"i	c #080400",
"j	c #181418",
"k	c #C5C2BD",
"l	c #D5D2D5",
"m	c #CDC6CD",
"n	c #C5BEC5",
"o	c #181C18",
"p	c #BDB6BD",
"q	c #C5C2C5",
"r	c #DED6DE",
"s	c #D5CED5",
"t	c #100C10",
"u	c #E6E2E6",
"v	c #080408",
"w	c #DEDADE",
"x	c #ACAEAC",
"y	c #EEE6EE",
"z	c #B4AEB4",
"A	c #EEEAEE",
".........................................................................................................................................................................................................................................................................................................................................................................................................................................................................................................................................................................................................................................................",
".........................................................................................................................................................................................................................................................................................................................................................................................................................................................................................................................................................................................................................................................",
".........................................................................................................................................................................................................................................................................................................................................................................................................................................................................................................................................................................................................................................................",
".........................................................................................................................................................................................................................................................................................................................................................................................................................................................................................................................................................................................................................................................",
".........................................................................................................................................................................................................................................................................................................................................................................................................................................................................................................................................................................................................................................................",
".........................................................................................................................................................................................................................................................................................................................................................................................................................................................................................................................................................................................................................................................",
".........................................................................................................................................................................................................................................................................................................................................................................................................................................................................................................................................................................................................................................................",
".........................................................................................................................................................................................................................................................................................................................................................................................................................................................................................................................................................................................................................................................",
"...+...@..#+.@@.$.%....@.&&..*......+...@..#+.@@.$.%....@.&&..*......+...@..#+.@@.$.%....@.&&..*......+...@..#+.@@.$.%....@.&&..*......+...@..#+.@@.$.%....@.&&..*......+...@..#+.@@.$.%....@.&&..*......+...@..#+.@@.$.%....@.&&..*......+...@..#+.@@.$.%....@.&&..*......+...@..#+.@@.$.%....@.&&..*......+...@..#+.@@.$.%....@.&&..*......+...@..#+.@@.$.%....@.&&..*......+...@..#+.@@.$.%....@.&&..*......+...@..#+.@@.$.%....@.&&..*......+...@..#+.@@.$.%....@.&&..*......+...@..#+.@@.$.%....@.&&..*......+...@..#+.@@.$.%....@.&&..*......+...@..#+.@@.$.%....@.&&..*......+...@..#+.@@.$.%....@.&&..*......+...@..#+.@@.$.%....@.&&..*......+..",
"..=..-....=@.......*..@..;>*..,....=..-....=@.......*..@..;>*..,....=..-....=@.......*..@..;>*..,....=..-....=@.......*..@..;>*..,....=..-....=@.......*..@..;>*..,....=..-....=@.......*..@..;>*..,....=..-....=@.......*..@..;>*..,....=..-....=@.......*..@..;>*..,....=..-....=@.......*..@..;>*..,....=..-....=@.......*..@..;>*..,....=..-....=@.......*..@..;>*..,....=..-....=@.......*..@..;>*..,....=..-....=@.......*..@..;>*..,....=..-....=@.......*..@..;>*..,....=..-....=@.......*..@..;>*..,....=..-....=@.......*..@..;>*..,....=..-....=@.......*..@..;>*..,....=..-....=@.......*..@..;>*..,....=..-....=@.......*..@..;>*..,....=.. ",
" .*......').,...=.%....+>!~&.+...%.*......').,...=.%....+>!~&.+...%.*......').,...=.%....+>!~&.+...%.*......').,...=.%....+>!~&.+...%.*......').,...=.%....+>!~&.+...%.*......').,...=.%....+>!~&.+...%.*......').,...=.%....+>!~&.+...%.*......').,...=.%....+>!~&.+...%.*......').,...=.%....+>!~&.+...%.*......').,...=.%....+>!~&.+...%.*......').,...=.%....+>!~&.+...%.*......').,...=.%....+>!~&.+...%.*......').,...=.%....+>!~&.+...%.*......').,...=.%....+>!~&.+...%.*......').,...=.%....+>!~&.+...%.*......').,...=.%....+>!~&.+...%.*......').,...=.%....+>!~&.+...%.*......').,...=.%....+>!~&.+...%.*......').,...=.%....+>!~&.+...%.*...",
"....{.'.{&>]..+.....+.+&^/(+_@=......{.'.{&>]..+.....+.+&^/(+_@=......{.'.{&>]..+.....+.+&^/(+_@=......{.'.{&>]..+.....+.+&^/(+_@=......{.'.{&>]..+.....+.+&^/(+_@=......{.'.{&>]..+.....+.+&^/(+_@=......{.'.{&>]..+.....+.+&^/(+_@=......{.'.{&>]..+.....+.+&^/(+_@=......{.'.{&>]..+.....+.+&^/(+_@=......{.'.{&>]..+.....+.+&^/(+_@=......{.'.{&>]..+.....+.+&^/(+_@=......{.'.{&>]..+.....+.+&^/(+_@=......{.'.{&>]..+.....+.+&^/(+_@=......{.'.{&>]..+.....+.+&^/(+_@=......{.'.{&>]..+.....+.+&^/(+_@=......{.'.{&>]..+.....+.+&^/(+_@=......{.'.{&>]..+.....+.+&^/(+_@=......{.'.{&>]..+.....+.+&^/(+_@=......{.'.{&>]..+.....+.+&^/(+_@=......{.",
".,@.+......,.+@..+..@.>:<>>[+&.'..,@.+......,.+@..+..@.>:<>>[+&.'..,@.+......,.+@..+..@.>:<>>[+&.'..,@.+......,.+@..+..@.>:<>>[+&.'..,@.+......,.+@..+..@.>:<>>[+&.'..,@.+......,.+@..+..@.>:<>>[+&.'..,@.+......,.+@..+..@.>:<>>[+&.'..,@.+......,.+@..+..@.>:<>>[+&.'..,@.+......,.+@..+..@.>:<>>[+&.'..,@.+......,.+@..+..@.>:<>>[+&.'..,@.+......,.+@..+..@.>:<>>[+&.'..,@.+......,.+@..+..@.>:<>>[+&.'..,@.+......,.+@..+..@.>:<>>[+&.'..,@.+......,.+@..+..@.>:<>>[+&.'..,@.+......,.+@..+..@.>:<>>[+&.'..,@.+......,.+@..+..@.>:<>>[+&.'..,@.+......,.+@..+..@.>:<>>[+&.'..,@.+......,.+@..+..@.>:<>>[+&.'..,@.+......,.+@..+..@.>:<>>[+&.'..,@.+.",
" ..+.+..==&.+....+=..}.|1.21.3&..,..+.+..==&.+....+=..}.|1.21.3&..,..+.+..==&.+....+=..}.|1.21.3&..,..+.+..==&.+....+=..}.|1.21.3&..,..+.+..==&.+....+=..}.|1.21.3&..,..+.+..==&.+....+=..}.|1.21.3&..,..+.+..==&.+....+=..}.|1.21.3&..,..+.+..==&.+....+=..}.|1.21.3&..,..+.+..==&.+....+=..}.|1.21.3&..,..+.+..==&.+....+=..}.|1.21.3&..,..+.+..==&.+....+=..}.|1.21.3&..,..+.+..==&.+....+=..}.|1.21.3&..,..+.+..==&.+....+=..}.|1.21.3&..,..+.+..==&.+....+=..}.|1.21.3&..,..+.+..==&.+....+=..}.|1.21.3&..,..+.+..==&.+....+=..}.|1.21.3&..,..+.+..==&.+....+=..}.|1.21.3&..,..+.+..==&.+....+=..}.|1.21.3&..,..+.+..==&.+....+=..}.|1.21.3&..,..+. ",
"4&4&56>&}17&>]]&>];&>&8:690&8a1&>4&4&56>&}17&>]]&>];&>&8:690&8a1&>4&4&56>&}17&>]]&>];&>&8:690&8a1&>4&4&56>&}17&>]]&>];&>&8:690&8a1&>4&4&56>&}17&>]]&>];&>&8:690&8a1&>4&4&56>&}17&>]]&>];&>&8:690&8a1&>4&4&56>&}17&>]]&>];&>&8:690&8a1&>4&4&56>&}17&>]]&>];&>&8:690&8a1&>4&4&56>&}17&>]]&>];&>&8:690&8a1&>4&4&56>&}17&>]]&>];&>&8:690&8a1&>4&4&56>&}17&>]]&>];&>&8:690&8a1&>4&4&56>&}17&>]]&>];&>&8:690&8a1&>4&4&56>&}17&>]]&>];&>&8:690&8a1&>4&4&56>&}17&>]]&>];&>&8:690&8a1&>4&4&56>&}17&>]]&>];&>&8:690&8a1&>4&4&56>&}17&>]]&>];&>&8:690&8a1&>4&4&56>&}17&>]]&>];&>&8:690&8a1&>4&4&56>&}17&>]]&>];&>&8:690&8a1&>4&4&56>&}17&>]]&>];&>&8:690&8a1&>4&4&56",
".;|.2...&(|.>b....+1c..=d&>e^f+.&.;|.2...&(|.>b....+1c..=d&>e^f+.&.;|.2...&(|.>b....+1c..=d&>e^f+.&.;|.2...&(|.>b....+1c..=d&>e^f+.&.;|.2...&(|.>b....+1c..=d&>e^f+.&.;|.2...&(|.>b....+1c..=d&>e^f+.&.;|.2...&(|.>b....+1c..=d&>e^f+.&.;|.2...&(|.>b....+1c..=d&>e^f+.&.;|.2...&(|.>b....+1c..=d&>e^f+.&.;|.2...&(|.>b....+1c..=d&>e^f+.&.;|.2...&(|.>b....+1c..=d&>e^f+.&.;|.2...&(|.>b....+1c..=d&>e^f+.&.;|.2...&(|.>b....+1c..=d&>e^f+.&.;|.2...&(|.>b....+1c..=d&>e^f+.&.;|.2...&(|.>b....+1c..=d&>e^f+.&.;|.2...&(|.>b....+1c..=d&>e^f+.&.;|.2...&(|.>b....+1c..=d&>e^f+.&.;|.2...&(|.>b....+1c..=d&>e^f+.&.;|.2...&(|.>b....+1c..=d&>e^f+.&.;|.2.",
"}3&g&&g&eh&c$}i1;&}%j&&k.<e3l&&>m}3&g&&g&eh&c$}i1;&}%j&&k.<e3l&&>m}3&g&&g&eh&c$}i1;&}%j&&k.<e3l&&>m}3&g&&g&eh&c$}i1;&}%j&&k.<e3l&&>m}3&g&&g&eh&c$}i1;&}%j&&k.<e3l&&>m}3&g&&g&eh&c$}i1;&}%j&&k.<e3l&&>m}3&g&&g&eh&c$}i1;&}%j&&k.<e3l&&>m}3&g&&g&eh&c$}i1;&}%j&&k.<e3l&&>m}3&g&&g&eh&c$}i1;&}%j&&k.<e3l&&>m}3&g&&g&eh&c$}i1;&}%j&&k.<e3l&&>m}3&g&&g&eh&c$}i1;&}%j&&k.<e3l&&>m}3&g&&g&eh&c$}i1;&}%j&&k.<e3l&&>m}3&g&&g&eh&c$}i1;&}%j&&k.<e3l&&>m}3&g&&g&eh&c$}i1;&}%j&&k.<e3l&&>m}3&g&&g&eh&c$}i1;&}%j&&k.<e3l&&>m}3&g&&g&eh&c$}i1;&}%j&&k.<e3l&&>m}3&g&&g&eh&c$}i1;&}%j&&k.<e3l&&>m}3&g&&g&eh&c$}i1;&}%j&&k.<e3l&&>m}3&g&&g&eh&c$}i1;&}%j&&k.<e3l&&>m}3&g&&",
"bj<3;3<n3o.&.pqe>r;&nsct.%.l&..3cbj<3;3<n3o.&.pqe>r;&nsct.%.l&..3cbj<3;3<n3o.&.pqe>r;&nsct.%.l&..3cbj<3;3<n3o.&.pqe>r;&nsct.%.l&..3cbj<3;3<n3o.&.pqe>r;&nsct.%.l&..3cbj<3;3<n3o.&.pqe>r;&nsct.%.l&..3cbj<3;3<n3o.&.pqe>r;&nsct.%.l&..3cbj<3;3<n3o.&.pqe>r;&nsct.%.l&..3cbj<3;3<n3o.&.pqe>r;&nsct.%.l&..3cbj<3;3<n3o.&.pqe>r;&nsct.%.l&..3cbj<3;3<n3o.&.pqe>r;&nsct.%.l&..3cbj<3;3<n3o.&.pqe>r;&nsct.%.l&..3cbj<3;3<n3o.&.pqe>r;&nsct.%.l&..3cbj<3;3<n3o.&.pqe>r;&nsct.%.l&..3cbj<3;3<n3o.&.pqe>r;&nsct.%.l&..3cbj<3;3<n3o.&.pqe>r;&nsct.%.l&..3cbj<3;3<n3o.&.pqe>r;&nsct.%.l&..3cbj<3;3<n3o.&.pqe>r;&nsct.%.l&..3cbj<3;3<n3o.&.pqe>r;&nsct.%.l&..3cbj<3;3",
".3s&ql-..&@t@s.@%gq.mq&>)=$&;&q.q.3s&ql-..&@t@s.@%gq.mq&>)=$&;&q.q.3s&ql-..&@t@s.@%gq.mq&>)=$&;&q.q.3s&ql-..&@t@s.@%gq.mq&>)=$&;&q.q.3s&ql-..&@t@s.@%gq.mq&>)=$&;&q.q.3s&ql-..&@t@s.@%gq.mq&>)=$&;&q.q.3s&ql-..&@t@s.@%gq.mq&>)=$&;&q.q.3s&ql-..&@t@s.@%gq.mq&>)=$&;&q.q.3s&ql-..&@t@s.@%gq.mq&>)=$&;&q.q.3s&ql-..&@t@s.@%gq.mq&>)=$&;&q.q.3s&ql-..&@t@s.@%gq.mq&>)=$&;&q.q.3s&ql-..&@t@s.@%gq.mq&>)=$&;&q.q.3s&ql-..&@t@s.@%gq.mq&>)=$&;&q.q.3s&ql-..&@t@s.@%gq.mq&>)=$&;&q.q.3s&ql-..&@t@s.@%gq.mq&>)=$&;&q.q.3s&ql-..&@t@s.@%gq.mq&>)=$&;&q.q.3s&ql-..&@t@s.@%gq.mq&>)=$&;&q.q.3s&ql-..&@t@s.@%gq.mq&>)=$&;&q.q.3s&ql-..&@t@s.@%gq.mq&>)=$&;&q.q.3s&ql",
"..&m[;>&@;g&3j&tauvp=>.m&..&.m>....&m[;>&@;g&3j&tauvp=>.m&..&.m>....&m[;>&@;g&3j&tauvp=>.m&..&.m>....&m[;>&@;g&3j&tauvp=>.m&..&.m>....&m[;>&@;g&3j&tauvp=>.m&..&.m>....&m[;>&@;g&3j&tauvp=>.m&..&.m>....&m[;>&@;g&3j&tauvp=>.m&..&.m>....&m[;>&@;g&3j&tauvp=>.m&..&.m>....&m[;>&@;g&3j&tauvp=>.m&..&.m>....&m[;>&@;g&3j&tauvp=>.m&..&.m>....&m[;>&@;g&3j&tauvp=>.m&..&.m>....&m[;>&@;g&3j&tauvp=>.m&..&.m>....&m[;>&@;g&3j&tauvp=>.m&..&.m>....&m[;>&@;g&3j&tauvp=>.m&..&.m>....&m[;>&@;g&3j&tauvp=>.m&..&.m>....&m[;>&@;g&3j&tauvp=>.m&..&.m>....&m[;>&@;g&3j&tauvp=>.m&..&.m>....&m[;>&@;g&3j&tauvp=>.m&..&.m>....&m[;>&@;g&3j&tauvp=>.m&..&.m>....&m[;",
"&vr3&/.t3.bce&nl&l%4j&wqvee>q.v&&&vr3&/.t3.bce&nl&l%4j&wqvee>q.v&&&vr3&/.t3.bce&nl&l%4j&wqvee>q.v&&&vr3&/.t3.bce&nl&l%4j&wqvee>q.v&&&vr3&/.t3.bce&nl&l%4j&wqvee>q.v&&&vr3&/.t3.bce&nl&l%4j&wqvee>q.v&&&vr3&/.t3.bce&nl&l%4j&wqvee>q.v&&&vr3&/.t3.bce&nl&l%4j&wqvee>q.v&&&vr3&/.t3.bce&nl&l%4j&wqvee>q.v&&&vr3&/.t3.bce&nl&l%4j&wqvee>q.v&&&vr3&/.t3.bce&nl&l%4j&wqvee>q.v&&&vr3&/.t3.bce&nl&l%4j&wqvee>q.v&&&vr3&/.t3.bce&nl&l%4j&wqvee>q.v&&&vr3&/.t3.bce&nl&l%4j&wqvee>q.v&&&vr3&/.t3.bce&nl&l%4j&wqvee>q.v&&&vr3&/.t3.bce&nl&l%4j&wqvee>q.v&&&vr3&/.t3.bce&nl&l%4j&wqvee>q.v&&&vr3&/.t3.bce&nl&l%4j&wqvee>q.v&&&vr3&/.t3.bce&nl&l%4j&wqvee>q.v&&&vr3&/",
"...t3jq=&p.q4l[&3ge@=%.&<<xl>e=.....t3jq=&p.q4l[&3ge@=%.&<<xl>e=.....t3jq=&p.q4l[&3ge@=%.&<<xl>e=.....t3jq=&p.q4l[&3ge@=%.&<<xl>e=.....t3jq=&p.q4l[&3ge@=%.&<<xl>e=.....t3jq=&p.q4l[&3ge@=%.&<<xl>e=.....t3jq=&p.q4l[&3ge@=%.&<<xl>e=.....t3jq=&p.q4l[&3ge@=%.&<<xl>e=.....t3jq=&p.q4l[&3ge@=%.&<<xl>e=.....t3jq=&p.q4l[&3ge@=%.&<<xl>e=.....t3jq=&p.q4l[&3ge@=%.&<<xl>e=.....t3jq=&p.q4l[&3ge@=%.&<<xl>e=.....t3jq=&p.q4l[&3ge@=%.&<<xl>e=.....t3jq=&p.q4l[&3ge@=%.&<<xl>e=.....t3jq=&p.q4l[&3ge@=%.&<<xl>e=.....t3jq=&p.q4l[&3ge@=%.&<<xl>e=.....t3jq=&p.q4l[&3ge@=%.&<<xl>e=.....t3jq=&p.q4l[&3ge@=%.&<<xl>e=.....t3jq=&p.q4l[&3ge@=%.&<<xl>e=.....t3j",
"&;&@@.&..6yt@%;..@t&t>v..$.%.>&g&&;&@@.&..6yt@%;..@t&t>v..$.%.>&g&&;&@@.&..6yt@%;..@t&t>v..$.%.>&g&&;&@@.&..6yt@%;..@t&t>v..$.%.>&g&&;&@@.&..6yt@%;..@t&t>v..$.%.>&g&&;&@@.&..6yt@%;..@t&t>v..$.%.>&g&&;&@@.&..6yt@%;..@t&t>v..$.%.>&g&&;&@@.&..6yt@%;..@t&t>v..$.%.>&g&&;&@@.&..6yt@%;..@t&t>v..$.%.>&g&&;&@@.&..6yt@%;..@t&t>v..$.%.>&g&&;&@@.&..6yt@%;..@t&t>v..$.%.>&g&&;&@@.&..6yt@%;..@t&t>v..$.%.>&g&&;&@@.&..6yt@%;..@t&t>v..$.%.>&g&&;&@@.&..6yt@%;..@t&t>v..$.%.>&g&&;&@@.&..6yt@%;..@t&t>v..$.%.>&g&&;&@@.&..6yt@%;..@t&t>v..$.%.>&g&&;&@@.&..6yt@%;..@t&t>v..$.%.>&g&&;&@@.&..6yt@%;..@t&t>v..$.%.>&g&&;&@@.&..6yt@%;..@t&t>v..$.%.>&g&&;&@@.",
"&&>v&&>&&;&&>;&;&&&t&&;&>&4&>&&&&&&>v&&>&&;&&>;&;&&&t&&;&>&4&>&&&&&&>v&&>&&;&&>;&;&&&t&&;&>&4&>&&&&&&>v&&>&&;&&>;&;&&&t&&;&>&4&>&&&&&&>v&&>&&;&&>;&;&&&t&&;&>&4&>&&&&&&>v&&>&&;&&>;&;&&&t&&;&>&4&>&&&&&&>v&&>&&;&&>;&;&&&t&&;&>&4&>&&&&&&>v&&>&&;&&>;&;&&&t&&;&>&4&>&&&&&&>v&&>&&;&&>;&;&&&t&&;&>&4&>&&&&&&>v&&>&&;&&>;&;&&&t&&;&>&4&>&&&&&&>v&&>&&;&&>;&;&&&t&&;&>&4&>&&&&&&>v&&>&&;&&>;&;&&&t&&;&>&4&>&&&&&&>v&&>&&;&&>;&;&&&t&&;&>&4&>&&&&&&>v&&>&&;&&>;&;&&&t&&;&>&4&>&&&&&&>v&&>&&;&&>;&;&&&t&&;&>&4&>&&&&&&>v&&>&&;&&>;&;&&&t&&;&>&4&>&&&&&&>v&&>&&;&&>;&;&&&t&&;&>&4&>&&&&&&>v&&>&&;&&>;&;&&&t&&;&>&4&>&&&&&&>v&&>&&;&&>;&;&&&t&&;&>&4&>&&&&&&>v&&",
"m.&[z.&/m.&[z.&/m.&[z.&/s$@..&r/.m.&[z.&/m.&[z.&/m.&[z.&/s$@..&r/.m.&[z.&/m.&[z.&/m.&[z.&/s$@..&r/.m.&[z.&/m.&[z.&/m.&[z.&/s$@..&r/.m.&[z.&/m.&[z.&/m.&[z.&/s$@..&r/.m.&[z.&/m.&[z.&/m.&[z.&/s$@..&r/.m.&[z.&/m.&[z.&/m.&[z.&/s$@..&r/.m.&[z.&/m.&[z.&/m.&[z.&/s$@..&r/.m.&[z.&/m.&[z.&/m.&[z.&/s$@..&r/.m.&[z.&/m.&[z.&/m.&[z.&/s$@..&r/.m.&[z.&/m.&[z.&/m.&[z.&/s$@..&r/.m.&[z.&/m.&[z.&/m.&[z.&/s$@..&r/.m.&[z.&/m.&[z.&/m.&[z.&/s$@..&r/.m.&[z.&/m.&[z.&/m.&[z.&/s$@..&r/.m.&[z.&/m.&[z.&/m.&[z.&/s$@..&r/.m.&[z.&/m.&[z.&/m.&[z.&/s$@..&r/.m.&[z.&/m.&[z.&/m.&[z.&/s$@..&r/.m.&[z.&/m.&[z.&/m.&[z.&/s$@..&r/.m.&[z.&/m.&[z.&/m.&[z.&/s$@..&r/.m.&[z.",
"&qe.>el.&qe.>el.&qe.>el.&&6&qm.;q&qe.>el.&qe.>el.&qe.>el.&&6&qm.;q&qe.>el.&qe.>el.&qe.>el.&&6&qm.;q&qe.>el.&qe.>el.&qe.>el.&&6&qm.;q&qe.>el.&qe.>el.&qe.>el.&&6&qm.;q&qe.>el.&qe.>el.&qe.>el.&&6&qm.;q&qe.>el.&qe.>el.&qe.>el.&&6&qm.;q&qe.>el.&qe.>el.&qe.>el.&&6&qm.;q&qe.>el.&qe.>el.&qe.>el.&&6&qm.;q&qe.>el.&qe.>el.&qe.>el.&&6&qm.;q&qe.>el.&qe.>el.&qe.>el.&&6&qm.;q&qe.>el.&qe.>el.&qe.>el.&&6&qm.;q&qe.>el.&qe.>el.&qe.>el.&&6&qm.;q&qe.>el.&qe.>el.&qe.>el.&&6&qm.;q&qe.>el.&qe.>el.&qe.>el.&&6&qm.;q&qe.>el.&qe.>el.&qe.>el.&&6&qm.;q&qe.>el.&qe.>el.&qe.>el.&&6&qm.;q&qe.>el.&qe.>el.&qe.>el.&&6&qm.;q&qe.>el.&qe.>el.&qe.>el.&&6&qm.;q&qe.>e",
"..t..@t...t..@t...t..@t.@.@.=4%....t..@t...t..@t...t..@t.@.@.=4%....t..@t...t..@t...t..@t.@.@.=4%....t..@t...t..@t...t..@t.@.@.=4%....t..@t...t..@t...t..@t.@.@.=4%....t..@t...t..@t...t..@t.@.@.=4%....t..@t...t..@t...t..@t.@.@.=4%....t..@t...t..@t...t..@t.@.@.=4%....t..@t...t..@t...t..@t.@.@.=4%....t..@t...t..@t...t..@t.@.@.=4%....t..@t...t..@t...t..@t.@.@.=4%....t..@t...t..@t...t..@t.@.@.=4%....t..@t...t..@t...t..@t.@.@.=4%....t..@t...t..@t...t..@t.@.@.=4%....t..@t...t..@t...t..@t.@.@.=4%....t..@t...t..@t...t..@t.@.@.=4%....t..@t...t..@t...t..@t.@.@.=4%....t..@t...t..@t...t..@t.@.@.=4%....t..@t...t..@t...t..@t.@.@.=4%....t..@",
";&v;&&g&;&v;&&g&;&v;&&g&;&;v;&&&&;&v;&&g&;&v;&&g&;&v;&&g&;&;v;&&&&;&v;&&g&;&v;&&g&;&v;&&g&;&;v;&&&&;&v;&&g&;&v;&&g&;&v;&&g&;&;v;&&&&;&v;&&g&;&v;&&g&;&v;&&g&;&;v;&&&&;&v;&&g&;&v;&&g&;&v;&&g&;&;v;&&&&;&v;&&g&;&v;&&g&;&v;&&g&;&;v;&&&&;&v;&&g&;&v;&&g&;&v;&&g&;&;v;&&&&;&v;&&g&;&v;&&g&;&v;&&g&;&;v;&&&&;&v;&&g&;&v;&&g&;&v;&&g&;&;v;&&&&;&v;&&g&;&v;&&g&;&v;&&g&;&;v;&&&&;&v;&&g&;&v;&&g&;&v;&&g&;&;v;&&&&;&v;&&g&;&v;&&g&;&v;&&g&;&;v;&&&&;&v;&&g&;&v;&&g&;&v;&&g&;&;v;&&&&;&v;&&g&;&v;&&g&;&v;&&g&;&;v;&&&&;&v;&&g&;&v;&&g&;&v;&&g&;&;v;&&&&;&v;&&g&;&v;&&g&;&v;&&g&;&;v;&&&&;&v;&&g&;&v;&&g&;&v;&&g&;&;v;&&&&;&v;&&g&;&v;&&g&;&v;&&g&;&;v;&&&&;&v;&&",
"..$...$...$...$...$...$...%.@@.$...$...$...$...$...$...$...%.@@.$...$...$...$...$...$...$...%.@@.$...$...$...$...$...$...$...%.@@.$...$...$...$...$...$...$...%.@@.$...$...$...$...$...$...$...%.@@.$...$...$...$...$...$...$...%.@@.$...$...$...$...$...$...$...%.@@.$...$...$...$...$...$...$...%.@@.$...$...$...$...$...$...$...%.@@.$...$...$...$...$...$...$...%.@@.$...$...$...$...$...$...$...%.@@.$...$...$...$...$...$...$...%.@@.$...$...$...$...$...$...$...%.@@.$...$...$...$...$...$...$...%.@@.$...$...$...$...$...$...$...%.@@.$...$...$...$...$...$...$...%.@@.$...$...$...$...$...$...$...%.@@.$...$...$...$...$...$...$...%.@@.$...$...",
"..%...%...%...%...%...%.%@...$.....%...%...%...%...%...%.%@...$.....%...%...%...%...%...%.%@...$.....%...%...%...%...%...%.%@...$.....%...%...%...%...%...%.%@...$.....%...%...%...%...%...%.%@...$.....%...%...%...%...%...%.%@...$.....%...%...%...%...%...%.%@...$.....%...%...%...%...%...%.%@...$.....%...%...%...%...%...%.%@...$.....%...%...%...%...%...%.%@...$.....%...%...%...%...%...%.%@...$.....%...%...%...%...%...%.%@...$.....%...%...%...%...%...%.%@...$.....%...%...%...%...%...%.%@...$.....%...%...%...%...%...%.%@...$.....%...%...%...%...%...%.%@...$.....%...%...%...%...%...%.%@...$.....%...%...%...%...%...%.%@...$.....%...",
"....@..%....@..%....@..%.$.A..@@.....@..%....@..%....@..%.$.A..@@.....@..%....@..%....@..%.$.A..@@.....@..%....@..%....@..%.$.A..@@.....@..%....@..%....@..%.$.A..@@.....@..%....@..%....@..%.$.A..@@.....@..%....@..%....@..%.$.A..@@.....@..%....@..%....@..%.$.A..@@.....@..%....@..%....@..%.$.A..@@.....@..%....@..%....@..%.$.A..@@.....@..%....@..%....@..%.$.A..@@.....@..%....@..%....@..%.$.A..@@.....@..%....@..%....@..%.$.A..@@.....@..%....@..%....@..%.$.A..@@.....@..%....@..%....@..%.$.A..@@.....@..%....@..%....@..%.$.A..@@.....@..%....@..%....@..%.$.A..@@.....@..%....@..%....@..%.$.A..@@.....@..%....@..%....@..%.$.A..@@.....@.",
" ...=@..=...=@..=...=@..@.%.=.=..=...=@..=...=@..=...=@..@.%.=.=..=...=@..=...=@..=...=@..@.%.=.=..=...=@..=...=@..=...=@..@.%.=.=..=...=@..=...=@..=...=@..@.%.=.=..=...=@..=...=@..=...=@..@.%.=.=..=...=@..=...=@..=...=@..@.%.=.=..=...=@..=...=@..=...=@..@.%.=.=..=...=@..=...=@..=...=@..@.%.=.=..=...=@..=...=@..=...=@..@.%.=.=..=...=@..=...=@..=...=@..@.%.=.=..=...=@..=...=@..=...=@..@.%.=.=..=...=@..=...=@..=...=@..@.%.=.=..=...=@..=...=@..=...=@..@.%.=.=..=...=@..=...=@..=...=@..@.%.=.=..=...=@..=...=@..=...=@..@.%.=.=..=...=@..=...=@..=...=@..@.%.=.=..=...=@..=...=@..=...=@..@.%.=.=..=...=@..=...=@..=...=@..@.%.=.=..=...=@",
"........................................................................................................................................................................................................................................................................................................................................................................................................................................................................................................................................................................................................................................................."};
