/* XPM */
static char * bottomrightcorner_xpm[] = {
"33 33 46 1",
" 	c None",
".	c #FFFFFF",
"+	c #FFFAFF",
"@	c #080408",
"#	c #000000",
"$	c #CDCACD",
"%	c #080808",
"&	c #D5CED5",
"*	c #F6F2F6",
"=	c #101010",
"-	c #BDBABD",
";	c #080C08",
">	c #BDBEBD",
",	c #000400",
"'	c #F6EEF6",
")	c #E6DEE6",
"!	c #BDB6BD",
"~	c #100C10",
"{	c #FFF6FF",
"]	c #CDCECD",
"^	c #ACAEAC",
"/	c #C5BEC5",
"(	c #181818",
"_	c #D5D2D5",
":	c #CDC6CD",
"<	c #C5C6C5",
"[	c #C5C2C5",
"}	c #DEDADE",
"|	c #DED6DE",
"1	c #EEEAEE",
"2	c #B4B6B4",
"3	c #F6F6F6",
"4	c #B4B2B4",
"5	c #181C18",
"6	c #A4A1A4",
"7	c #201C20",
"8	c #101410",
"9	c #292829",
"0	c #D5D6D5",
"a	c #ACAAAC",
"b	c #EEEEEE",
"c	c #181418",
"d	c #EEE6EE",
"e	c #B4AEB4",
"f	c #E6E6E6",
"g	c #E6E2E6",
".........+....@.#.$#.$#%.#&#.*...",
"..............#.=.-=--;#..>,+..+.",
".........+....@.#.%')!#%#$@~.+{{.",
"..............#.,.@$]###.^.#.....",
".........+....@.##/$#(.#{%_%.*...",
"..............#.%:><,#<#..[#.....",
".........+....@.!$)##.}##<%#..*..",
"..............#.]/#|%-[#.[.#.....",
"..............#.$#+~.<:%.#&#.*...",
".{+.....{.1...,.2%;#>:<#..>,+..+.",
"{..+..+....#;,@>&@%.&]-@#$@~.+{{.",
"+...3.*+.+%.$'+$^%@.4]&#.^.#.....",
".31......+#.#5[.};#_.{&#{%_%.*...",
"3..{....+.,.,6(+<%.##.2%..[#.....",
"=#7#8;###8#2>9#04#$.@[_##<%#..*..",
"+7a.*..&[:[&[2_/]:##<:>%.[.#.....",
"@$#;(#|-[3....+.$2&<$>%,.@$#..+..",
"_:[:#-<$8#####;!.|-.+-#,+.[%.*.'.",
"+4&,:_.#2.=%(:+%+]%#|./@@]@@.b...",
"..#&4%#{;#$[4%.#]-~/#.<#.:.#..*..",
"@%$/c{@~$!$}[##]$$[#@[-,.%/,.....",
"...#=#-:>$<-&[$$>..4$&]%0d<=+1.+.",
"##~#...+..+...d.,%{..+.>#.##.....",
",;#~#,#%###;#;;####c##<.#..%..b..",
":.#0e.#>:.#0e.#>:.~$[.#=%#:;+.{..",
"#[$.,$_.#[$.,$_.#[[+;20';e>,3*.{.",
"..~..+~...~..+~...#..b#...(#.....",
"%#@%##=#%#@%##=##%#=#####@#~.f.{.",
"..{...{...{...{.{..+....13..+....",
"..*...*...*...*..+3+.+.+.3*+.+...",
"....+..*....+..*+b..+b..)...{....",
"3...3+..3...3+.....{..+..+.g.{.+.",
"................................."};
