/* XPM */
static char * topleftcorner_xpm[] = {
"33 33 44 1",
" 	c None",
".	c #FFFAFF",
"+	c #FFFFFF",
"@	c #F6F2F6",
"#	c #EEEEEE",
"$	c #EEEAEE",
"%	c #DEDADE",
"&	c #FFF6FF",
"*	c #F6F6F6",
"=	c #E6E2E6",
"-	c #000000",
";	c #181C18",
">	c #000400",
",	c #080808",
"'	c #080408",
")	c #292829",
"!	c #101010",
"~	c #181418",
"{	c #BDBABD",
"]	c #D5CED5",
"^	c #C5C6C5",
"/	c #CDCACD",
"(	c #100C10",
"_	c #C5C2C5",
":	c #CDC6CD",
"<	c #C5BEC5",
"[	c #D5D2D5",
"}	c #080C08",
"|	c #E6E6E6",
"1	c #201C20",
"2	c #DEDEDE",
"3	c #BDBEBD",
"4	c #BDB6BD",
"5	c #101410",
"6	c #CDCECD",
"7	c #ACAAAC",
"8	c #D5D6D5",
"9	c #DED6DE",
"0	c #ACAEAC",
"a	c #F6EEF6",
"b	c #B4B2B4",
"c	c #181818",
"d	c #A4A5A4",
"e	c #202420",
".+ ++.+++++++++++++++++++++++++++",
"+@++#+$+++.++.@+++.++.@+++.++.@++",
"++%.+.++&+.+++.+&+.+++.+&+.+++.++",
"++++.+*+++++*++@++++*++@++++*++@+",
"+*+&+&+.+++++++++++++++++++++++++",
" +=.+--;>---,--'>---,--'>---,--'-",
"..+++-)$++-+++!@++-+++!@++-+++!@+",
"+@++#~{]-+^/-.{/-+^/-.{/-+^/-.{/-",
"+.+++-/>(',./^'+/_'+_:,+:{-+<<,.:",
"++.@+-*+-.[,-,-}-->>-'-->>--,'-!-",
".+.++,(@,[+|+.@--+$+++@+++.+.-1--",
"+@++@-]+{,{2^3++34={3{_]/_/-5-|++",
"+++.+,<}+-</--<[[6'-//=3]-,@-[%}-",
".++&+-*/.-[+-:,^_'@534^--+-!3:-++",
"&++++>!_-,_+%('^+-+{!>!+/>+7%~__+",
"+*.+*>_++-,_.+/^+/---,-}-<[%-4[<^",
"+++@+-/>+-(<<_%{:++*+@+@:8{,',(<'",
"+$++*'+3+,{[/-,__93/{=7%]0++$+0-+",
"++++*>(/->/8-+:'=0!-^6--,,!-->1->",
"++.++-{++-[&->+-3@-%>$5++.=++&+++",
".++&+!/-+-_@+[-!/+:--+>.+.+++++@+",
"..+++-+3+-_68a--b/*+/+-+.++a.+.++",
"++&++--/--:^4+-c[/--(-.++.++*+.++",
".+++*'{+.,/__-!-_.,+#+.+.+@+++.++",
"+++@+-/>+-/]+-.-_*!+.++.+++++++++",
"+$++*'+3*-68,_!_2+>+++.++++++++++",
"++++*>(/!cb+->{/d.-+++.++++++++++",
"++.++-{+#,6->^6<e$>+++.++++++++++",
".++&+!/-+!+-(66--*~++++++++++++++",
"..+++-+3.'->^_-+,+>++++++++++++++",
"++&++--/!-~/4+,+!+-++.+++++++++++",
".+++*'{+.!-:6>{+-+-++.+.+++++++++",
"+++++>^>+-'_+-^+-+'++++++++++++++"};
